board.c:220:5:__arch_cpu_init	0	static
board.c:118:12:display_banner	8	static
board.c:112:12:init_baudrate	8	static
board.c:79:13:__coloured_LED_init	0	static
board.c:82:13:__red_led_on	0	static
board.c:84:13:__red_led_off	0	static
board.c:86:13:__green_led_on	0	static
board.c:88:13:__green_led_off	0	static
board.c:90:13:__yellow_led_on	0	static
board.c:92:13:__yellow_led_off	0	static
board.c:94:13:__blue_led_on	0	static
board.c:96:13:__blue_led_off	0	static
board.c:212:6:__dram_init_banksize	0	static
board.c:227:5:__power_init_board	0	static
board.c:489:6:board_init_r	8	static
board.c:671:6:hang	8	static
board.c:268:6:board_init_f	8	static
