bcm2835_gpio.c:23:12:gpio_is_valid	0	static
bcm2835_gpio.c:28:5:gpio_request	0	static
bcm2835_gpio.c:33:5:gpio_free	0	static
bcm2835_gpio.c:38:5:gpio_direction_input	16	static
bcm2835_gpio.c:68:5:gpio_get_value	0	static
bcm2835_gpio.c:79:5:gpio_set_value	0	static
bcm2835_gpio.c:52:5:gpio_direction_output	16	static
