lcd.c:103:13:console_scrollup	24	static
lcd.c:214:13:1	24	static
lcd.c:144:6:lcd_putc	24	static
lcd.c:183:6:lcd_puts	8	static
lcd.c:198:6:lcd_printf	1064	static
lcd.c:360:6:lcd_clear	16	static
lcd.c:329:5:drv_lcd_init	80	static
lcd.c:354:5:do_lcd_clear	8	static
lcd.c:444:7:lcd_setmem	0	static
lcd.c:667:5:lcd_display_bitmap	48	static
