mmc.c:844:13:mmc_set_ios	0	static
mmc.c:50:12:mmc_send_cmd	32	static
mmc.c:570:12:mmc_send_ext_csd	56	static
mmc.c:420:12:mmc_go_idle	40	static
mmc.c:112:12:5	48	static
mmc.c:592:12:1	40	static
mmc.c:43:5:__board_mmc_getcd	0	static
mmc.c:167:13:find_mmc_device	8	static
mmc.c:236:1:mmc_berase	72	static
mmc.c:326:1:mmc_bwrite	88	static
mmc.c:388:14:mmc_bread	80	static
mmc.c:660:5:mmc_switch_part	8	static
mmc.c:672:5:mmc_getcd	8	static
mmc.c:849:6:mmc_set_clock	0	static
mmc.c:869:12:mmc_startup	1448	static
mmc.c:1175:5:mmc_register	0	static
mmc.c:1205:5:mmc_init	56	static
mmc.c:1195:19:mmc_get_dev	8	static
mmc.c:1263:12:__def_mmc_init	0	static
mmc.c:1271:6:print_mmc_devices	24	static
mmc.c:1288:5:get_mmc_num	0	static
mmc.c:1293:5:mmc_initialize	8	static
