libgenwrap.c:40:5:printf	272	static
libgenwrap.c:59:5:vprintf	264	static
libgenwrap.c:74:6:putc	0	static
libgenwrap.c:79:6:__udelay	0	static
libgenwrap.c:84:5:do_reset	8	static
libgenwrap.c:90:7:malloc	0	static
libgenwrap.c:95:6:hang	0	static
